Name,OutCode,Time,Mem
clasp.sh+0001-quadruple_cone_5-25-1.asp.grnd.nrml.bid+9b97e643,0,0.62,6940,1+,0.60,0.60,0.00,
clasp.sh+0002-triple_cone_6-24-1.asp.grnd.nrml.bid+3a34c0d1,0,0.56,6984,1+,0.53,0.53,0.00,
clasp.sh+0003-quadruple_cone_6-30-1.asp.grnd.nrml.bid+f862ba3e,0,1596.52,35664,0,1596.56,0.00,1596.56,
clasp.sh+0004-double_cone_6-18-1.asp.grnd.nrml.bid+2beb39a7,0,6.26,5344,0,6.25,0.00,6.25,
clasp.sh+0005-quadruple_cone_7-35-1.asp.grnd.nrml.bid+4ca16aa4,0,232.14,16664,1+,232.08,232.08,0.00,
clasp.sh+0006-triple_cone_8-32-1.asp.grnd.nrml.bid+24d620a8,0,77.31,12004,1+,77.27,77.27,0.00,
clasp.sh+0007-windmill_5_2-20-1.asp.grnd.nrml.bid+25a54b30,0,146.6,14520,0,146.59,0.00,146.59,
clasp.sh+0008-clique_path_5_2-25-1.asp.grnd.nrml.bid+a3f57b1b,0,61.68,10268,1+,61.66,61.66,0.00,
clasp.sh+0009-clique_path_6_2-36-1.asp.grnd.nrml.bid+900b6f39,0,5199.6,62860
clasp.sh+0010-triple_cone_9-36-1.asp.grnd.nrml.bid+d44cd112,0,322.77,20364,1+,322.73,322.73,0.00,
clasp.sh+0011-clique_path_8_2-64-1.asp.grnd.nrml.bid+e1cdfe5b,0,5199.74,84224
clasp.sh+0012-clique_path_7_2-49-1.asp.grnd.nrml.bid+6903f262,0,5199.73,75080
clasp.sh+0013-clique_clique_3_3-18-1.asp.grnd.nrml.bid+83cc6eca,0,64.01,8784,0,64.01,0.00,64.01,
clasp.sh+0014-clique_clique_4_3-30-1.asp.grnd.nrml.bid+354ec03e,0,22.62,9996,1+,22.59,22.59,0.00,
clasp.sh+0015-double_cone_10-30-1.asp.grnd.nrml.bid+3be8caac,0,5199.72,50140
clasp.sh+0016-suspended_prism_5_2-25-1.asp.grnd.nrml.bid+72b36dc4,0,5199.73,54952
clasp.sh+0017-clique_clique_5_3-45-1.asp.grnd.nrml.bid+12da38de,0,5199.74,57576
clasp.sh+0018-clique_clique_4_4-48-1.asp.grnd.nrml.bid+3a328a40,0,5199.72,61644
clasp.sh+0019-windmill_4_3-18-1.asp.grnd.nrml.bid+86b1bbfa,0,310.84,18688,0,310.86,0.00,310.86,
clasp.sh+0020-double_cone_12-36-1.asp.grnd.nrml.bid+e99ac60a,0,35.9,15228,1+,35.83,35.83,0.00,
clasp.sh+0021-windmill_5_3-30-1.asp.grnd.nrml.bid+f4e2d8e6,0,5199.73,66852
clasp.sh+0022-suspended_prism_6_2-30-1.asp.grnd.nrml.bid+4b04cd02,0,5199.73,49572
clasp.sh+0023-double_cone_13-39-1.asp.grnd.nrml.bid+666a1b2f,0,150.04,20748,1+,149.94,149.94,0.00,
clasp.sh+0024-suspended_prism_5_3-40-1.asp.grnd.nrml.bid+518b961f,0,244.3,19236,1+,244.21,244.21,0.00,
clasp.sh+0025-clique_wheel_4_4-40-1.asp.grnd.nrml.bid+b756f610,0,5199.75,54068
clasp.sh+0026-suspended_prism_7_2-35-1.asp.grnd.nrml.bid+978c9122,0,41.29,14396,1+,41.22,41.22,0.00,
clasp.sh+0027-suspended_prism_4_4-44-1.asp.grnd.nrml.bid+c6dce400,0,416.48,43912,1+,416.34,416.34,0.00,
clasp.sh+0028-clique_path_4_4-36-1.asp.grnd.nrml.bid+467e4bdc,0,607.12,24148,1+,607.05,607.05,0.00,
clasp.sh+0029-windmill_4_4-24-1.asp.grnd.nrml.bid+3827cc13,0,0.22,6712,1+,0.20,0.20,0.00,
clasp.sh+0030-windmill_5_4-40-1.asp.grnd.nrml.bid+c514eb82,0,5199.71,82512
clasp.sh+0031-suspended_prism_8_2-40-1.asp.grnd.nrml.bid+acf18701,0,9.15,19456,1+,9.05,9.05,0.00,
clasp.sh+0032-suspended_prism_6_3-48-1.asp.grnd.nrml.bid+ccf48509,0,5199.75,87940
clasp.sh+0033-doughnut_5_3-30-1.asp.grnd.nrml.bid+e8cf11e9,0,5199.73,69852
clasp.sh+0034-doughnut_3_5-30-1.asp.grnd.nrml.bid+f0c75cea,0,5199.74,77092
clasp.sh+0035-suspended_prism_5_4-55-1.asp.grnd.nrml.bid+709cd702,0,5199.72,174480
clasp.sh+0036-clique_wheel_4_5-50-1.asp.grnd.nrml.bid+cde39fae,0,5199.65,169704
clasp.sh+0037-windmill_4_5-30-1.asp.grnd.nrml.bid+c24e352a,0,1.87,10596,1+,1.82,1.82,0.00,
clasp.sh+0038-clique_path_4_5-46-1.asp.grnd.nrml.bid+55a5c05b,0,5199.74,73084
clasp.sh+0039-doughnut_3_6-36-1.asp.grnd.nrml.bid+9aa5ce54,0,148.27,16808,1+,148.20,148.20,0.00,
clasp.sh+0040-doughnut_4_5-40-1.asp.grnd.nrml.bid+8bd9b943,0,722.25,31704,1+,722.16,722.16,0.00,
clasp.sh+0041-windmill_4_6-36-1.asp.grnd.nrml.bid+f5492ca8,0,14.08,15940,1+,14.00,14.00,0.00,
clasp.sh+0042-clique_path_4_6-56-1.asp.grnd.nrml.bid+5a198fa0,0,5199.5,201560
clasp.sh+0043-doughnut_3_7-42-1.asp.grnd.nrml.bid+d62ce967,0,5199.74,73392
clasp.sh+0044-prism_6_3-30-1.asp.grnd.nrml.bid+5475363d,0,0.82,10440,1+,0.77,0.77,0.00,
clasp.sh+0045-triple_wheel_7-42-1.asp.grnd.nrml.bid+2f7fbe25,0,35.5,23212,1+,35.35,35.35,0.00,
clasp.sh+0046-prism_5_4-35-1.asp.grnd.nrml.bid+7d9c5c0,0,4.43,14928,1+,4.36,4.36,0.00,
clasp.sh+0047-doughnut_4_6-48-1.asp.grnd.nrml.bid+7639bcb1,0,5199.69,194024
clasp.sh+0048-triple_wheel_8-48-1.asp.grnd.nrml.bid+d219f3cd,0,111.54,35352,1+,111.32,111.32,0.00,
clasp.sh+0049-double_wheel_12-48-1.asp.grnd.nrml.bid+11e66018,0,333.8,57220,1+,333.63,333.63,0.00,
clasp.sh+0050-prism_7_3-35-1.asp.grnd.nrml.bid+7a50426,0,13.09,14900,1+,13.01,13.01,0.00,
clasp.sh+0051-prism_5_5-45-1.asp.grnd.nrml.bid+bf9afa64,0,101.78,27444,1+,101.61,101.61,0.00,
clasp.sh+0052-prism_6_4-42-1.asp.grnd.nrml.bid+dcc7a240,0,60.31,23496,1+,60.16,60.16,0.00,
clasp.sh+0053-triple_wheel_9-54-1.asp.grnd.nrml.bid+8c5683e1,0,24.06,44572,1+,23.71,23.71,0.00,
clasp.sh+0054-double_wheel_13-52-1.asp.grnd.nrml.bid+21e25f36,0,138.69,41028,1+,138.43,138.43,0.00,
clasp.sh+0055-double_wheel_14-56-1.asp.grnd.nrml.bid+a765b4f8,0,576.72,78160,1+,576.40,576.40,0.00,
clasp.sh+0056-triple_wheel_10-60-1.asp.grnd.nrml.bid+c6728081,0,265.04,60240,1+,264.61,264.61,0.00,
clasp.sh+0057-double_wheel_15-60-1.asp.grnd.nrml.bid+8c931f2e,0,276.69,60240,1+,276.25,276.25,0.00,
clasp.sh+0058-prism_6_5-54-1.asp.grnd.nrml.bid+e73f6f7a,0,5199.68,207452
clasp.sh+0059-prism_5_6-55-1.asp.grnd.nrml.bid+2b2064da,0,3727.55,86304,1+,3727.51,3727.51,0.00,
clasp.sh+0060-prism_7_4-49-1.asp.grnd.nrml.bid+2368e369,0,181.54,33784,1+,181.30,181.30,0.00,
clasp.sh+crew-1-10-small.asp.grnd.nrml.bid+928814e6,0,0.0,3876,0,0.00,0.00,0.00,
clasp.sh+crew-1-11-small.asp.grnd.nrml.bid+16b861e7,0,0.0,3884,0,0.00,0.00,0.00,
clasp.sh+crew-1-12-small.asp.grnd.nrml.bid+9ae8aee8,0,0.0,3792,0,0.00,0.00,0.00,
clasp.sh+crew-1-13-small.asp.grnd.nrml.bid+1f18fbe9,0,0.0,3936,0,0.00,0.00,0.00,
clasp.sh+crew-1-14-small.asp.grnd.nrml.bid+a34948ea,0,0.02,4072,0,0.01,0.00,0.01,
clasp.sh+crew-1-15-small.asp.grnd.nrml.bid+277995eb,0,0.04,4460,0,0.04,0.00,0.04,
clasp.sh+crew-1-16-small.asp.grnd.nrml.bid+aba9e2ec,0,0.09,4584,0,0.08,0.00,0.08,
clasp.sh+crew-1-17-small.asp.grnd.nrml.bid+2fda2fed,0,0.16,5052,0,0.16,0.00,0.16,
clasp.sh+crew-1-18-small.asp.grnd.nrml.bid+b40a7cee,0,0.18,5456,0,0.18,0.00,0.18,
clasp.sh+crew-1-19-small.asp.grnd.nrml.bid+383ac9ef,0,0.2,5608,0,0.19,0.00,0.19,
clasp.sh+crew-1-20-small.asp.grnd.nrml.bid+94616805,0,0.27,6044,0,0.26,0.00,0.26,
clasp.sh+crew-1-21-small.asp.grnd.nrml.bid+1891b506,0,0.33,6468,0,0.32,0.00,0.32,
clasp.sh+crew-1-22-small.asp.grnd.nrml.bid+9cc20207,0,0.4,6912,0,0.39,0.00,0.39,
clasp.sh+crew-1-23-small.asp.grnd.nrml.bid+20f24f08,0,0.64,7388,0,0.62,0.00,0.62,
clasp.sh+crew-1-24-small.asp.grnd.nrml.bid+a5229c09,0,0.45,7976,0,0.44,0.00,0.44,
clasp.sh+crew-1-25-small.asp.grnd.nrml.bid+2952e90a,0,1.02,8504,0,1.00,0.00,1.00,
clasp.sh+crew-1-5-small.asp.grnd.nrml.bid+d9d941e4,0,0.0,3800,0,0.00,0.00,0.00,
clasp.sh+crew-1-6-small.asp.grnd.nrml.bid+5e098ee5,0,0.0,3840,0,0.00,0.00,0.00,
clasp.sh+crew-1-7-small.asp.grnd.nrml.bid+e239dbe6,0,0.0,3840,0,0.00,0.00,0.00,
clasp.sh+crew-1-8-small.asp.grnd.nrml.bid+666a28e7,0,0.0,3804,0,0.00,0.00,0.00,
clasp.sh+crew-1-9-small.asp.grnd.nrml.bid+ea9a75e8,0,0.0,3820,0,0.00,0.00,0.00,
clasp.sh+crew-2-10-small.asp.grnd.nrml.bid+83591c45,0,0.0,3744,0,0.00,0.00,0.00,
clasp.sh+crew-2-11-small.asp.grnd.nrml.bid+7896946,0,0.0,3848,0,0.00,0.00,0.00,
clasp.sh+crew-2-12-small.asp.grnd.nrml.bid+8bb9b647,0,0.0,3916,0,0.00,0.00,0.00,
clasp.sh+crew-2-13-small.asp.grnd.nrml.bid+fea0348,0,0.0,3860,0,0.00,0.00,0.00,
clasp.sh+crew-2-14-small.asp.grnd.nrml.bid+941a5049,0,0.0,4072,0,0.00,0.00,0.00,
clasp.sh+crew-2-15-small.asp.grnd.nrml.bid+184a9d4a,0,0.01,4244,0,0.01,0.00,0.01,
clasp.sh+crew-2-16-small.asp.grnd.nrml.bid+9c7aea4b,0,0.03,4572,0,0.03,0.00,0.03,
clasp.sh+crew-2-17-small.asp.grnd.nrml.bid+20ab374c,0,0.12,5056,0,0.12,0.00,0.12,
clasp.sh+crew-2-18-small.asp.grnd.nrml.bid+a4db844d,0,0.12,5192,0,0.11,0.00,0.11,
clasp.sh+crew-2-19-small.asp.grnd.nrml.bid+290bd14e,0,0.22,5580,0,0.21,0.00,0.21,
clasp.sh+crew-2-20-small.asp.grnd.nrml.bid+85326f64,0,0.81,6008,0,0.80,0.00,0.80,
clasp.sh+crew-2-21-small.asp.grnd.nrml.bid+962bc65,0,1.55,6456,0,1.54,0.00,1.54,
clasp.sh+crew-2-22-small.asp.grnd.nrml.bid+8d930966,0,2.96,6896,0,2.95,0.00,2.95,
clasp.sh+crew-2-23-small.asp.grnd.nrml.bid+11c35667,0,6.08,7612,0,6.07,0.00,6.07,
clasp.sh+crew-2-24-small.asp.grnd.nrml.bid+95f3a368,0,4.96,7964,0,4.94,0.00,4.94,
clasp.sh+crew-2-25-small.asp.grnd.nrml.bid+1a23f069,0,6.41,8480,0,6.39,0.00,6.39,
clasp.sh+crew-2-5-small.asp.grnd.nrml.bid+132a52a5,0,0.0,3788,0,0.00,0.00,0.00,
clasp.sh+crew-2-6-small.asp.grnd.nrml.bid+975a9fa6,0,0.0,3828,0,0.00,0.00,0.00,
clasp.sh+crew-2-7-small.asp.grnd.nrml.bid+1b8aeca7,0,0.0,3812,0,0.00,0.00,0.00,
clasp.sh+crew-2-8-small.asp.grnd.nrml.bid+9fbb39a8,0,0.0,3848,0,0.00,0.00,0.00,
clasp.sh+crew-2-9-small.asp.grnd.nrml.bid+23eb86a9,0,0.0,3840,0,0.00,0.00,0.00,
clasp.sh+holes10.asp.grnd.nrml.bid+fc4801f,0,0.0,3840,0,0.00,0.00,0.00,
clasp.sh+holes100.asp.grnd.nrml.bid+c87b60d3,0,5199.58,420652
clasp.sh+holes11.asp.grnd.nrml.bid+dd6ee1e0,0,0.0,3820,0,0.00,0.00,0.00,
clasp.sh+holes12.asp.grnd.nrml.bid+ab1943a1,0,0.0,3772,0,0.00,0.00,0.00,
clasp.sh+holes13.asp.grnd.nrml.bid+78c3a562,0,0.0,3764,0,0.00,0.00,0.00,
clasp.sh+holes14.asp.grnd.nrml.bid+466e0723,0,0.0,3760,0,0.01,0.00,0.01,
clasp.sh+holes15.asp.grnd.nrml.bid+141868e4,0,0.02,3792,0,0.01,0.00,0.01,
clasp.sh+holes20.asp.grnd.nrml.bid+f766567e,0,0.03,4096,0,0.02,0.00,0.02,
clasp.sh+holes30.asp.grnd.nrml.bid+df082cdd,0,1.76,6728,0,1.74,0.00,1.74,
clasp.sh+holes5.asp.grnd.nrml.bid+d51dce57,0,0.0,3776,0,0.00,0.00,0.00,
clasp.sh+holes50.asp.grnd.nrml.bid+ae4bd99b,0,59.1,37992,0,59.01,0.00,59.01,
clasp.sh+holes6.asp.grnd.nrml.bid+a2c83018,0,0.0,3808,0,0.00,0.00,0.00,
clasp.sh+holes7.asp.grnd.nrml.bid+707291d9,0,0.0,3824,0,0.00,0.00,0.00,
clasp.sh+holes70.asp.grnd.nrml.bid+7d8f8659,0,1048.6,167628,0,1048.38,0.00,1048.38,
clasp.sh+holes8.asp.grnd.nrml.bid+3e1cf39a,0,0.0,3812,0,0.00,0.00,0.00,
clasp.sh+holes9.asp.grnd.nrml.bid+bc7555b,0,0.0,3908,0,0.00,0.00,0.00,
clasp.sh+nqueens100.asp.grnd.nrml.bid+ec2a5f0b,0,1.78,164488,1+,0.02,0.02,0.00,
clasp.sh+nqueens125.asp.grnd.nrml.bid+bfc1f48e,0,3.49,311228,1+,0.02,0.02,0.00,
clasp.sh+nqueens150.asp.grnd.nrml.bid+72538ee6,0,6.3,502592,1+,0.05,0.05,0.00,
clasp.sh+nqueens175.asp.grnd.nrml.bid+45eb2469,0,9.76,795884,1+,0.10,0.10,0.00,
clasp.sh+nqueens200.asp.grnd.nrml.bid+f8c3548c,0,15.45,1217588,1+,0.09,0.09,0.00,
clasp.sh+nqueens225.asp.grnd.nrml.bid+cc5aea0f,0,21.6,1658704,1+,0.08,0.08,0.00,
clasp.sh+nqueens25.asp.grnd.nrml.bid+d3969a0b,0,0.02,5620,1+,0.00,0.00,0.00,
clasp.sh+nqueens250.asp.grnd.nrml.bid+7eec8467,0,31.46,2343504,1+,0.19,0.19,0.00,
clasp.sh+nqueens275.asp.grnd.nrml.bid+528419ea,0,41.35,3010240,1+,0.18,0.18,0.00,
clasp.sh+nqueens300.asp.grnd.nrml.bid+55c4a0d,0,54.28,3814792,1+,0.34,0.34,0.00,
clasp.sh+nqueens325.asp.grnd.nrml.bid+d8f3df90,0,74.42,5053560,1+,0.50,0.50,0.00,
clasp.sh+nqueens350.asp.grnd.nrml.bid+8b8579e8,0,92.28,6136948,1+,0.32,0.32,0.00,
clasp.sh+nqueens375.asp.grnd.nrml.bid+5f1d0f6b,0,0.0,3648
clasp.sh+nqueens400.asp.grnd.nrml.bid+11f53f8e,0,0.0,3724
clasp.sh+nqueens50.asp.grnd.nrml.bid+86283463,0,0.2,24900,1+,0.00,0.00,0.00,
clasp.sh+nqueens75.asp.grnd.nrml.bid+59bfc9e6,0,0.75,74404,1+,0.00,0.00,0.00,
