Name,OutCode,Time,Mem
breakid.sh+001-valves-166-0.asp.grnd+548fd5b1,0,1.02,22364,1749,2,1,1528626,1,0,1748,1749,0,
breakid.sh+004-valves-711-0.asp.grnd+af4fffce,0,37.57,292448,10073,1,1,50737701,0,0,10073,10073,0,
breakid.sh+011-valves-711-0.asp.grnd+ccbcc2ea,0,39.28,292312,10097,25,1,50737701,24,3600,10073,13697,1200,
breakid.sh+015-valves-166-0.asp.grnd+7957c994,0,1.07,22376,1749,2,1,1528626,1,0,1748,1749,0,
breakid.sh+022-valves-2053-0.asp.grnd+eeb4783b,0,303.48,1185788,25455,2,1,323965785,1,0,25454,25455,0,
breakid.sh+028-valves-710-0.asp.grnd+c867dd31,0,88.58,513676,14990,44,3,111639169,41,6150,16305,22496,2502,
breakid.sh+033-valves-466-0.asp.grnd+829111ad,0,2.05,33764,2431,2,1,2953665,1,0,2430,2431,0,
breakid.sh+039-valves-166-0.asp.grnd+9a214c56,0,1.06,22356,1753,6,1,1528626,5,396,1748,2149,132,
breakid.sh+045-valves-450-0.asp.grnd+f648ec53,0,264.76,1090756,24235,46,1,292590145,45,6750,24190,30985,2250,
breakid.sh+051-valves-711-0.asp.grnd+bcc2fe66,0,38.39,292444,10072,1,1,50727628,0,0,10072,10072,0,
breakid.sh+058-valves-73-0.asp.grnd+3af5dcf8,0,18.55,171996,7050,5,2,24784348,3,450,7047,7500,150,
breakid.sh+061-valves-450-0.asp.grnd+c585a50d,0,264.84,1091276,24235,46,1,292590145,45,6750,24190,30985,2250,
breakid.sh+071-valves-166-0.asp.grnd+389abdca,0,1.07,22356,1753,6,1,1528626,5,396,1748,2149,132,
breakid.sh+077-valves-450-0.asp.grnd+7eb0cb72,0,256.29,1090928,24235,46,1,292590145,45,6750,24190,30985,2250,
breakid.sh+081-valves-466-0.asp.grnd+da35a986,0,1.97,34028,2431,2,1,2953665,1,0,2430,2431,0,
breakid.sh+085-valves-450-0.asp.grnd+e64f27cf,0,263.81,1093032,24190,1,1,292590145,0,0,24190,24190,0,
breakid.sh+092-valves-710-0.asp.grnd+ef492dc4,0,87.83,513656,14990,44,3,111639169,41,6150,16305,22496,2502,
breakid.sh+099-valves-711-0.asp.grnd+fe5603ea,0,38.48,292488,10072,1,1,50727628,0,0,10072,10072,0,
breakid.sh+103-valves-166-0.asp.grnd+6d235534,0,1.07,22360,1753,6,1,1528626,5,396,1748,2149,132,
breakid.sh+112-valves-210-0.asp.grnd+2a1813b2,0,1.24,25536,1924,1,1,1851850,0,0,1924,1924,0,
breakid.sh+116-valves-710-0.asp.grnd+bc3368d1,0,90.33,527196,14945,2,2,111639159,0,0,14945,14945,0,
breakid.sh+123-valves-711-0.asp.grnd+e151d14c,0,39.06,291960,10096,25,1,50727628,24,3600,10072,13696,1200,
breakid.sh+130-valves-73-0.asp.grnd+6e66645d,0,18.3,180096,7049,2,1,24840676,1,150,7048,7199,50,
breakid.sh+134-valves-2053-0.asp.grnd+6cc13619,0,307.81,1188700,25455,2,1,323965785,1,0,25454,25455,0,
breakid.sh+141-valves-450-0.asp.grnd+51b2d450,0,268.72,1093360,24235,46,1,292590145,45,6750,24190,30985,2250,
breakid.sh+150-valves-2053-0.asp.grnd+851b949f,0,308.89,1188844,25455,2,1,323965785,1,0,25454,25455,0,
breakid.sh+158-valves-2053-0.asp.grnd+65280b97,0,298.6,1192272,25504,51,1,323965785,50,7350,25454,32854,2450,
breakid.sh+163-valves-711-0.asp.grnd+d1580cc8,0,39.13,292472,10072,1,1,50727628,0,0,10072,10072,0,
breakid.sh+168-valves-210-0.asp.grnd+d3497593,0,1.24,25512,1934,11,1,1851850,10,1050,1924,2984,350,
breakid.sh+177-valves-466-0.asp.grnd+1f8dff2e,0,2.03,34024,2431,2,1,2953665,1,0,2430,2431,0,
breakid.sh+184-valves-210-0.asp.grnd+a2862e4d,0,1.23,25520,1934,11,1,1851850,10,1050,1924,2984,350,
breakid.sh+192-valves-210-0.asp.grnd+a248aaa,0,1.27,25536,1924,1,1,1851850,0,0,1924,1924,0,
breakid.sh+199-valves-166-0.asp.grnd+65af291,0,1.05,22356,1753,6,1,1528626,5,396,1748,2149,132,
breakid.sh+205-valves-450-0.asp.grnd+ea34ad9,0,265.22,1090696,24235,46,1,292590145,45,6750,24190,30985,2250,
breakid.sh+208-valves-210-0.asp.grnd+6f70695a,0,1.28,25528,1924,1,1,1851850,0,0,1924,1924,0,
breakid.sh+215-valves-166-0.asp.grnd+81b86396,0,1.07,22356,1753,6,1,1528626,5,396,1748,2149,132,
breakid.sh+223-valves-166-0.asp.grnd+e956bff3,0,1.06,22372,1749,2,1,1528626,1,0,1748,1749,0,
breakid.sh+230-valves-2053-0.asp.grnd+7e944dbc,0,299.64,1189116,25455,2,1,323965785,1,0,25454,25455,0,
breakid.sh+236-valves-710-0.asp.grnd+3866d390,0,88.36,513600,14990,44,3,111639169,41,6150,16305,22496,2502,
breakid.sh+240-valves-210-0.asp.grnd+de9dace,0,1.3,25532,1924,1,1,1851850,0,0,1924,1924,0,
breakid.sh+250-valves-73-0.asp.grnd+fecb25be,0,17.98,172004,7050,3,1,24840676,2,300,7048,7350,100,
breakid.sh+257-valves-466-0.asp.grnd+abbb2e71,0,2.03,34028,2431,2,1,2953665,1,0,2430,2431,0,
breakid.sh+267-valves-711-0.asp.grnd+7e4ebecd,0,39.16,292108,10096,25,1,50727628,24,3600,10072,13696,1200,
breakid.sh+272-valves-210-0.asp.grnd+9651b9ed,0,1.26,25532,1924,1,1,1851850,0,0,1924,1924,0,
breakid.sh+278-valves-2053-0.asp.grnd+6f61f8b8,0,299.15,1190676,25455,2,1,323965785,1,0,25454,25455,0,
breakid.sh+287-valves-166-0.asp.grnd+fa267e31,0,1.06,22372,1749,2,1,1528626,1,0,1748,1749,0,
breakid.sh+292-valves-710-0.asp.grnd+f7a9c7c6,0,88.44,526888,14946,1,1,111698931,0,0,14946,14946,0,
breakid.sh+300-valves-710-0.asp.grnd+b68dc6e,0,89.57,514116,14988,40,2,111698941,38,5700,16306,22044,2352,
breakid.sh+307-valves-711-0.asp.grnd+1a75b294,0,38.46,292420,10072,1,1,50727628,0,0,10072,10072,0,
breakid.sh+314-valves-73-0.asp.grnd+ec1d3a15,0,17.94,171744,7050,3,1,24840676,2,300,7048,7350,100,
breakid.sh+still-10-1.asp.grnd+54521242,0,0.0,4352,82,40,1,946,0,0,43,43,0,
breakid.sh+still-11-1.asp.grnd+5c03b7a1,0,0.01,4488,88,44,1,1035,0,0,45,45,0,
breakid.sh+still-12-1.asp.grnd+63b55d00,0,0.0,4360,94,48,1,1128,0,0,47,47,0,
breakid.sh+still-13-1.asp.grnd+6b67025f,0,0.01,4560,100,52,1,1225,0,0,49,49,0,
breakid.sh+still-14-1.asp.grnd+7318a7be,0,0.01,4760,106,56,1,1326,0,0,51,51,0,
breakid.sh+still-15-1.asp.grnd+7aca4d1d,0,0.01,5120,112,60,1,1431,0,0,53,53,0,
breakid.sh+still-16-1.asp.grnd+827bf27c,0,0.02,5868,118,64,1,1540,0,0,55,55,0,
breakid.sh+still-17-1.asp.grnd+8a2d97db,0,0.02,6372,124,68,1,1653,0,0,57,57,0,
breakid.sh+still-18-1.asp.grnd+91df3d3a,0,0.03,7104,130,72,1,1770,0,0,59,59,0,
breakid.sh+still-19-1.asp.grnd+9990e299,0,0.02,7964,136,76,1,1891,0,0,61,61,0,
breakid.sh+still-20-1.asp.grnd+42d518c3,0,0.04,8772,142,80,1,2016,0,0,63,63,0,
breakid.sh+still-21-1.asp.grnd+4a86be22,0,0.03,9740,148,84,1,2145,0,0,65,65,0,
breakid.sh+still-22-1.asp.grnd+52386381,0,0.04,10628,154,88,1,2278,0,0,67,67,0,
breakid.sh+still-23-1.asp.grnd+59ea08e0,0,0.05,11700,160,92,1,2415,0,0,69,69,0,
breakid.sh+still-24-1.asp.grnd+619bae3f,0,0.05,12664,166,96,1,2556,0,0,71,71,0,
breakid.sh+still-25-1.asp.grnd+694d539e,0,0.05,13944,172,100,1,2701,0,0,73,73,0,
breakid.sh+still-26-1.asp.grnd+70fef8fd,0,0.06,15168,178,104,1,2850,0,0,75,75,0,
breakid.sh+still-27-1.asp.grnd+78b09e5c,0,0.08,16572,184,108,1,3003,0,0,77,77,0,
breakid.sh+still-28-1.asp.grnd+806243bb,0,0.09,17748,190,112,1,3160,0,0,79,79,0,
breakid.sh+still-29-1.asp.grnd+8813e91a,0,0.1,19208,196,116,1,3321,0,0,81,81,0,
breakid.sh+still-30-1.asp.grnd+31581f44,0,0.1,20732,202,120,1,3486,0,0,83,83,0,
breakid.sh+still-31-1.asp.grnd+3909c4a3,0,0.12,22380,208,124,1,3655,0,0,85,85,0,
breakid.sh+still-6-1.asp.grnd+53dd683f,0,0.0,4364,58,24,1,630,0,0,35,35,0,
breakid.sh+still-7-1.asp.grnd+5b8f0d9e,0,0.0,4420,64,28,1,703,0,0,37,37,0,
breakid.sh+still-8-1.asp.grnd+6340b2fd,0,0.0,4504,70,32,1,780,0,0,39,39,0,
breakid.sh+still-9-1.asp.grnd+6af2585c,0,0.0,4336,76,36,1,861,0,0,41,41,0,
