Name,OutCode,Time,Mem
clasp.sh+001-valves-166-0.asp.grnd.nrml+d880ab1b,0,4.09,629264,,0.00,0.00,0.00,0+,
clasp.sh+004-valves-711-0.asp.grnd.nrml+12c74b1e,0,125.49,15210476,,0.00,0.00,0.00,0+,
clasp.sh+011-valves-711-0.asp.grnd.nrml+69a41982,0,125.75,15208732,,0.00,0.00,0.00,0+,
clasp.sh+015-valves-166-0.asp.grnd.nrml+c514ad18,0,4.16,627264,,0.00,0.00,0.00,0+,
clasp.sh+022-valves-2053-0.asp.grnd.nrml+a1c794fb,0,273.43,32338552,,0.00,0.00,0.00,0+,
clasp.sh+028-valves-710-0.asp.grnd.nrml+d801539b,0,270.51,30836768,,0.00,0.00,0.00,0+,
clasp.sh+033-valves-466-0.asp.grnd.nrml+9f118c9f,0,7.3,1072816,,0.00,0.00,0.00,0+,
clasp.sh+039-valves-166-0.asp.grnd.nrml+daf89396,0,4.02,626584,,0.00,0.00,0.00,0+,
clasp.sh+045-valves-450-0.asp.grnd.nrml+17669b9,0,287.64,32343408,,0.00,0.00,0.00,0+,
clasp.sh+051-valves-711-0.asp.grnd.nrml+ee3ab86,0,125.58,15224476,,0.00,0.00,0.00,0+,
clasp.sh+058-valves-73-0.asp.grnd.nrml+28470b9e,0,55.7,7296920,,0.00,0.00,0.00,0+,
clasp.sh+061-valves-450-0.asp.grnd.nrml+90d2153f,0,273.36,32347652,,0.00,0.00,0.00,0+,
clasp.sh+071-valves-166-0.asp.grnd.nrml+f9afeaa2,0,4.12,626868,,0.00,0.00,0.00,0+,
clasp.sh+077-valves-450-0.asp.grnd.nrml+5f0825fa,0,265.98,32360384,,0.00,0.00,0.00,0+,
clasp.sh+081-valves-466-0.asp.grnd.nrml+8bfef466,0,7.21,1073180,,0.00,0.00,0.00,0+,
clasp.sh+085-valves-450-0.asp.grnd.nrml+a6b5fbbd,0,265.82,32352232,,0.00,0.00,0.00,0+,
clasp.sh+092-valves-710-0.asp.grnd.nrml+544a66e8,0,272.22,30867488,,0.00,0.00,0.00,0+,
clasp.sh+099-valves-711-0.asp.grnd.nrml+3aab7882,0,126.62,15240036,,0.00,0.00,0.00,0+,
clasp.sh+103-valves-166-0.asp.grnd.nrml+bacf6578,0,4.12,627912,,0.00,0.00,0.00,0+,
clasp.sh+112-valves-210-0.asp.grnd.nrml+62405ba,0,4.66,707532,,0.00,0.00,0.00,0+,
clasp.sh+116-valves-710-0.asp.grnd.nrml+cdbc0bfb,0,272.89,30883452,,0.00,0.00,0.00,0+,
clasp.sh+123-valves-711-0.asp.grnd.nrml+7542b860,0,123.92,15243764,,0.00,0.00,0.00,0+,
clasp.sh+130-valves-73-0.asp.grnd.nrml+a56c5b59,0,56.12,7295768,,0.00,0.00,0.00,0+,
clasp.sh+134-valves-2053-0.asp.grnd.nrml+9fcd1dd,0,274.06,32331692,,0.00,0.00,0.00,0+,
clasp.sh+141-valves-450-0.asp.grnd.nrml+3edef7dc,0,268.17,32363068,,0.00,0.00,0.00,0+,
clasp.sh+150-valves-2053-0.asp.grnd.nrml+66169717,0,268.88,32345092,,0.00,0.00,0.00,0+,
clasp.sh+158-valves-2053-0.asp.grnd.nrml+b095bb1f,0,266.47,32361624,,0.00,0.00,0.00,0+,
clasp.sh+163-valves-711-0.asp.grnd.nrml+1a824a64,0,126.51,15258392,,0.00,0.00,0.00,0+,
clasp.sh+168-valves-210-0.asp.grnd.nrml+7999a879,0,4.61,706480,,0.00,0.00,0.00,0+,
clasp.sh+177-valves-466-0.asp.grnd.nrml+841e7be,0,7.38,1078404,,0.00,0.00,0.00,0+,
clasp.sh+184-valves-210-0.asp.grnd.nrml+8f553ff,0,4.64,707356,,0.00,0.00,0.00,0+,
clasp.sh+192-valves-210-0.asp.grnd.nrml+50a329c2,0,4.66,708236,,0.00,0.00,0.00,0+,
clasp.sh+199-valves-166-0.asp.grnd.nrml+d3849a3b,0,4.12,627956,,0.00,0.00,0.00,0+,
clasp.sh+205-valves-450-0.asp.grnd.nrml+5d902ef3,0,268.97,32343256,,0.00,0.00,0.00,0+,
clasp.sh+208-valves-210-0.asp.grnd.nrml+8266f912,0,4.76,709480,,0.00,0.00,0.00,0+,
clasp.sh+215-valves-166-0.asp.grnd.nrml+c66e0456,0,4.17,627628,,0.00,0.00,0.00,0+,
clasp.sh+223-valves-166-0.asp.grnd.nrml+e1bda19,0,4.11,626184,,0.00,0.00,0.00,0+,
clasp.sh+230-valves-2053-0.asp.grnd.nrml+79a6081a,0,269.23,32357792,,0.00,0.00,0.00,0+,
clasp.sh+236-valves-710-0.asp.grnd.nrml+2108809c,0,270.01,30929956,,0.00,0.00,0.00,0+,
clasp.sh+240-valves-210-0.asp.grnd.nrml+a11e501e,0,4.61,710184,,0.00,0.00,0.00,0+,
clasp.sh+250-valves-73-0.asp.grnd.nrml+b05e4e98,0,56.87,7296132,,0.00,0.00,0.00,0+,
clasp.sh+257-valves-466-0.asp.grnd.nrml+b64eca5b,0,7.32,1081664,,0.00,0.00,0.00,0+,
clasp.sh+267-valves-711-0.asp.grnd.nrml+de73137f,0,124.98,15283420,,0.00,0.00,0.00,0+,
clasp.sh+272-valves-210-0.asp.grnd.nrml+feb00c5f,0,4.74,709736,,0.00,0.00,0.00,0+,
clasp.sh+278-valves-2053-0.asp.grnd.nrml+c6d7da9e,0,274.86,32332632,,0.00,0.00,0.00,0+,
clasp.sh+287-valves-166-0.asp.grnd.nrml+c93f529b,0,4.12,626784,,0.00,0.00,0.00,0+,
clasp.sh+292-valves-710-0.asp.grnd.nrml+55a3be26,0,271.74,30956168,,0.00,0.00,0.00,0+,
clasp.sh+300-valves-710-0.asp.grnd.nrml+df527e,0,274.8,30956268,,0.00,0.00,0.00,0+,
clasp.sh+307-valves-711-0.asp.grnd.nrml+e7406418,0,124.16,15294784,,0.00,0.00,0.00,0+,
clasp.sh+314-valves-73-0.asp.grnd.nrml+fbae58a1,0,56.85,7294708,,0.00,0.00,0.00,0+,
clasp.sh+still-10-1.asp.grnd.nrml+8dc351d4,0,0.0,4272,,0.00,0.00,0.00,0+,
clasp.sh+still-11-1.asp.grnd.nrml+de6d2fd5,0,0.0,4652,,0.00,0.00,0.00,0+,
clasp.sh+still-12-1.asp.grnd.nrml+2f170dd6,0,0.0,5084,,0.00,0.00,0.00,0+,
clasp.sh+still-13-1.asp.grnd.nrml+7fc0ebd7,0,0.0,5404,,0.00,0.00,0.00,0+,
clasp.sh+still-14-1.asp.grnd.nrml+d06ac9d8,0,0.01,6120,,0.00,0.00,0.00,0+,
clasp.sh+still-15-1.asp.grnd.nrml+2114a7d9,0,0.0,6516,,0.00,0.00,0.00,0+,
clasp.sh+still-16-1.asp.grnd.nrml+71be85da,0,0.01,7072,,0.00,0.00,0.00,0+,
clasp.sh+still-17-1.asp.grnd.nrml+c26863db,0,0.02,7676,,0.00,0.00,0.00,0+,
clasp.sh+still-18-1.asp.grnd.nrml+131241dc,0,0.01,8560,,0.00,0.00,0.00,0+,
clasp.sh+still-19-1.asp.grnd.nrml+63bc1fdd,0,0.02,9484,,0.00,0.00,0.00,0+,
clasp.sh+still-20-1.asp.grnd.nrml+525533f3,0,0.02,9972,,0.00,0.00,0.00,0+,
clasp.sh+still-21-1.asp.grnd.nrml+a2ff11f4,0,0.03,11068,,0.00,0.00,0.00,0+,
clasp.sh+still-22-1.asp.grnd.nrml+f3a8eff5,0,0.02,11872,,0.00,0.00,0.00,0+,
clasp.sh+still-23-1.asp.grnd.nrml+4452cdf6,0,0.04,12404,,0.00,0.00,0.00,0+,
clasp.sh+still-24-1.asp.grnd.nrml+94fcabf7,0,0.04,13300,,0.00,0.00,0.00,0+,
clasp.sh+still-25-1.asp.grnd.nrml+e5a689f8,0,0.05,14836,,0.00,0.00,0.00,0+,
clasp.sh+still-26-1.asp.grnd.nrml+365067f9,0,0.06,16172,,0.00,0.00,0.00,0+,
clasp.sh+still-27-1.asp.grnd.nrml+86fa45fa,0,0.06,17272,,0.00,0.00,0.00,0+,
clasp.sh+still-28-1.asp.grnd.nrml+d7a423fb,0,0.07,18380,,0.00,0.00,0.00,0+,
clasp.sh+still-29-1.asp.grnd.nrml+284e01fc,0,0.07,19196,,0.00,0.00,0.00,0+,
clasp.sh+still-30-1.asp.grnd.nrml+16e71612,0,0.08,20196,,0.00,0.00,0.00,0+,
clasp.sh+still-31-1.asp.grnd.nrml+6790f413,0,0.09,21384,,0.00,0.00,0.00,0+,
clasp.sh+still-6-1.asp.grnd.nrml+b52806cd,0,0.0,3888,,0.00,0.00,0.00,0+,
clasp.sh+still-7-1.asp.grnd.nrml+5d1e4ce,0,0.0,3824,,0.00,0.00,0.00,0+,
clasp.sh+still-8-1.asp.grnd.nrml+567bc2cf,0,0.0,3820,,0.00,0.00,0.00,0+,
clasp.sh+still-9-1.asp.grnd.nrml+a725a0d0,0,0.0,3788,,0.00,0.00,0.00,0+,
